%YAML 1.1
%TAG !u! tag:unity3d.com,2011:
--- !u!1001 &2068080134726991654
PrefabInstance:
  m_ObjectHideFlags: 0
  serializedVersion: 2
  m_Modification:
    m_TransformParent: {fileID: 0}
    m_Modifications:
    - target: {fileID: -927199367670048503, guid: 37f770ca2d3fd5c418b25dfb68aa11c1,
        type: 3}
      propertyPath: m_Name
      value: JoelBuilding1
      objectReference: {fileID: 0}
    - target: {fileID: -4216859302048453862, guid: 37f770ca2d3fd5c418b25dfb68aa11c1,
        type: 3}
      propertyPath: m_LocalPosition.x
      value: 0.1299
      objectReference: {fileID: 0}
    - target: {fileID: -4216859302048453862, guid: 37f770ca2d3fd5c418b25dfb68aa11c1,
        type: 3}
      propertyPath: m_LocalPosition.y
      value: 6.62
      objectReference: {fileID: 0}
    - target: {fileID: -4216859302048453862, guid: 37f770ca2d3fd5c418b25dfb68aa11c1,
        type: 3}
      propertyPath: m_LocalPosition.z
      value: 0.14600001
      objectReference: {fileID: 0}
    - target: {fileID: -4216859302048453862, guid: 37f770ca2d3fd5c418b25dfb68aa11c1,
        type: 3}
      propertyPath: m_LocalRotation.x
      value: -0
      objectReference: {fileID: 0}
    - target: {fileID: -4216859302048453862, guid: 37f770ca2d3fd5c418b25dfb68aa11c1,
        type: 3}
      propertyPath: m_LocalRotation.y
      value: -0.7071068
      objectReference: {fileID: 0}
    - target: {fileID: -4216859302048453862, guid: 37f770ca2d3fd5c418b25dfb68aa11c1,
        type: 3}
      propertyPath: m_LocalRotation.z
      value: -0
      objectReference: {fileID: 0}
    - target: {fileID: -4216859302048453862, guid: 37f770ca2d3fd5c418b25dfb68aa11c1,
        type: 3}
      propertyPath: m_LocalRotation.w
      value: 0.7071068
      objectReference: {fileID: 0}
    - target: {fileID: -4216859302048453862, guid: 37f770ca2d3fd5c418b25dfb68aa11c1,
        type: 3}
      propertyPath: m_RootOrder
      value: 0
      objectReference: {fileID: 0}
    - target: {fileID: -4216859302048453862, guid: 37f770ca2d3fd5c418b25dfb68aa11c1,
        type: 3}
      propertyPath: m_LocalEulerAnglesHint.x
      value: 0
      objectReference: {fileID: 0}
    - target: {fileID: -4216859302048453862, guid: 37f770ca2d3fd5c418b25dfb68aa11c1,
        type: 3}
      propertyPath: m_LocalEulerAnglesHint.y
      value: -90
      objectReference: {fileID: 0}
    - target: {fileID: -4216859302048453862, guid: 37f770ca2d3fd5c418b25dfb68aa11c1,
        type: 3}
      propertyPath: m_LocalEulerAnglesHint.z
      value: 0
      objectReference: {fileID: 0}
    - target: {fileID: -4216859302048453862, guid: 37f770ca2d3fd5c418b25dfb68aa11c1,
        type: 3}
      propertyPath: m_LocalScale.x
      value: 0.029213982
      objectReference: {fileID: 0}
    - target: {fileID: -4216859302048453862, guid: 37f770ca2d3fd5c418b25dfb68aa11c1,
        type: 3}
      propertyPath: m_LocalScale.y
      value: 1.7528367
      objectReference: {fileID: 0}
    - target: {fileID: -4216859302048453862, guid: 37f770ca2d3fd5c418b25dfb68aa11c1,
        type: 3}
      propertyPath: m_LocalScale.z
      value: 0.03130069
      objectReference: {fileID: 0}
    - target: {fileID: -1611837848651398869, guid: 37f770ca2d3fd5c418b25dfb68aa11c1,
        type: 3}
      propertyPath: m_Materials.Array.data[0]
      value: 
      objectReference: {fileID: 2100000, guid: 32782ae4b7da2dc4ebbd6e085c92b157, type: 2}
    m_RemovedComponents: []
  m_SourcePrefab: {fileID: 100100000, guid: 37f770ca2d3fd5c418b25dfb68aa11c1, type: 3}
