%YAML 1.1
%TAG !u! tag:unity3d.com,2011:
--- !u!1001 &5549848962489148037
PrefabInstance:
  m_ObjectHideFlags: 0
  serializedVersion: 2
  m_Modification:
    m_TransformParent: {fileID: 0}
    m_Modifications:
    - target: {fileID: -927199367670048503, guid: cff32f8626eba04499661bd62fdc9f90,
        type: 3}
      propertyPath: m_Name
      value: JoelBuilding6
      objectReference: {fileID: 0}
    - target: {fileID: -9223050591362191256, guid: cff32f8626eba04499661bd62fdc9f90,
        type: 3}
      propertyPath: m_Materials.Array.data[0]
      value: 
      objectReference: {fileID: 2100000, guid: c4cb2a0aaea4b254fabc81f21f9d5199, type: 2}
    - target: {fileID: -4216859302048453862, guid: cff32f8626eba04499661bd62fdc9f90,
        type: 3}
      propertyPath: m_LocalPosition.x
      value: 0.02
      objectReference: {fileID: 0}
    - target: {fileID: -4216859302048453862, guid: cff32f8626eba04499661bd62fdc9f90,
        type: 3}
      propertyPath: m_LocalPosition.y
      value: 0.5
      objectReference: {fileID: 0}
    - target: {fileID: -4216859302048453862, guid: cff32f8626eba04499661bd62fdc9f90,
        type: 3}
      propertyPath: m_LocalPosition.z
      value: 0.491
      objectReference: {fileID: 0}
    - target: {fileID: -4216859302048453862, guid: cff32f8626eba04499661bd62fdc9f90,
        type: 3}
      propertyPath: m_LocalRotation.x
      value: -0
      objectReference: {fileID: 0}
    - target: {fileID: -4216859302048453862, guid: cff32f8626eba04499661bd62fdc9f90,
        type: 3}
      propertyPath: m_LocalRotation.y
      value: -1
      objectReference: {fileID: 0}
    - target: {fileID: -4216859302048453862, guid: cff32f8626eba04499661bd62fdc9f90,
        type: 3}
      propertyPath: m_LocalRotation.z
      value: -0
      objectReference: {fileID: 0}
    - target: {fileID: -4216859302048453862, guid: cff32f8626eba04499661bd62fdc9f90,
        type: 3}
      propertyPath: m_LocalRotation.w
      value: 0
      objectReference: {fileID: 0}
    - target: {fileID: -4216859302048453862, guid: cff32f8626eba04499661bd62fdc9f90,
        type: 3}
      propertyPath: m_RootOrder
      value: 0
      objectReference: {fileID: 0}
    - target: {fileID: -4216859302048453862, guid: cff32f8626eba04499661bd62fdc9f90,
        type: 3}
      propertyPath: m_LocalEulerAnglesHint.x
      value: 0
      objectReference: {fileID: 0}
    - target: {fileID: -4216859302048453862, guid: cff32f8626eba04499661bd62fdc9f90,
        type: 3}
      propertyPath: m_LocalEulerAnglesHint.y
      value: -180
      objectReference: {fileID: 0}
    - target: {fileID: -4216859302048453862, guid: cff32f8626eba04499661bd62fdc9f90,
        type: 3}
      propertyPath: m_LocalEulerAnglesHint.z
      value: 0
      objectReference: {fileID: 0}
    - target: {fileID: -4216859302048453862, guid: cff32f8626eba04499661bd62fdc9f90,
        type: 3}
      propertyPath: m_LocalScale.x
      value: 0.0056534875
      objectReference: {fileID: 0}
    - target: {fileID: -4216859302048453862, guid: cff32f8626eba04499661bd62fdc9f90,
        type: 3}
      propertyPath: m_LocalScale.y
      value: 0.3165953
      objectReference: {fileID: 0}
    - target: {fileID: -4216859302048453862, guid: cff32f8626eba04499661bd62fdc9f90,
        type: 3}
      propertyPath: m_LocalScale.z
      value: 0.0052765887
      objectReference: {fileID: 0}
    - target: {fileID: -3753531241494421337, guid: cff32f8626eba04499661bd62fdc9f90,
        type: 3}
      propertyPath: m_Materials.Array.data[0]
      value: 
      objectReference: {fileID: 2100000, guid: c4cb2a0aaea4b254fabc81f21f9d5199, type: 2}
    - target: {fileID: -2151150502277698953, guid: cff32f8626eba04499661bd62fdc9f90,
        type: 3}
      propertyPath: m_Materials.Array.data[0]
      value: 
      objectReference: {fileID: 2100000, guid: 32782ae4b7da2dc4ebbd6e085c92b157, type: 2}
    - target: {fileID: -1861651289905407578, guid: cff32f8626eba04499661bd62fdc9f90,
        type: 3}
      propertyPath: m_Materials.Array.data[0]
      value: 
      objectReference: {fileID: 2100000, guid: 32782ae4b7da2dc4ebbd6e085c92b157, type: 2}
    - target: {fileID: 354660693789700486, guid: cff32f8626eba04499661bd62fdc9f90,
        type: 3}
      propertyPath: m_Materials.Array.data[0]
      value: 
      objectReference: {fileID: 2100000, guid: c4cb2a0aaea4b254fabc81f21f9d5199, type: 2}
    - target: {fileID: 4175593259817410184, guid: cff32f8626eba04499661bd62fdc9f90,
        type: 3}
      propertyPath: m_Materials.Array.data[0]
      value: 
      objectReference: {fileID: 2100000, guid: 32782ae4b7da2dc4ebbd6e085c92b157, type: 2}
    - target: {fileID: 8765807459319818208, guid: cff32f8626eba04499661bd62fdc9f90,
        type: 3}
      propertyPath: m_Materials.Array.data[0]
      value: 
      objectReference: {fileID: 2100000, guid: 32782ae4b7da2dc4ebbd6e085c92b157, type: 2}
    m_RemovedComponents: []
  m_SourcePrefab: {fileID: 100100000, guid: cff32f8626eba04499661bd62fdc9f90, type: 3}
