%YAML 1.1
%TAG !u! tag:unity3d.com,2011:
--- !u!1045 &1
EditorBuildSettings:
  m_ObjectHideFlags: 0
  serializedVersion: 2
  m_Scenes:
  - enabled: 1
    path: Assets/Scenes/MainMenu.unity
    guid: f738d14e988e6104b986ab9d76a6fe5b
  - enabled: 1
    path: Assets/Scenes/GameScene.unity
    guid: 49951d28dd7f9634191b166237002afd
  - enabled: 1
    path: Assets/Scenes/ShipInfo.unity
    guid: 0de72ca428c7bd24d981262494a51354
  - enabled: 1
    path: Assets/Scenes/Settings.unity
    guid: c1d2082941c555d4185b83b9818d258b
  m_configObjects: {}
